{
    "Selection": "Uct",
    "Expansion": "Contextual",
    "Simulation": "Contextual",
    "Backpropagation": "Simple",
    "cValue": 0.288,
    "gammaCmc": 0.5,
    "threshold": 0.5,
    "window": -1
}