{
	"hostname": "localhost",
	"lobby": "mylobby",
	"game": "UnoReferee",
	"engine": "za.ac.sun.cs.ingenious.games.cardGames.uno.engines.UnoRandomEngine",
	"threadCount": 1,
	"numPlayers": 2,
	"port": 61234
}
