{
    "boardSize": 3,
    "numPlayers": 2,
    "hostname": "localhost",
    "port": 61234,
    "threadCount": 1,
    "turnLength": 250,
    "numMatches": 1,
    "enhancement": "../MctsEnhancementConfigs/EnhancementChoiceVanilla.json",
    "engine": "za.ac.sun.cs.ingenious.games.nim.engines.TreeEngine.NimMCTSTreeGenericEngine",
    "lobby": "mylobby",
    "game": "NimReferee"
}